{
  "serverClientPath": "/admin",
  "client": ".",
  "node": "node_modules",
  "app": "./app",
  "relativeSaveDestination": "build",
  "refDestination": "build",
  "fullNodePath": "node_modules",
  "stylePath": "styles"
}
